cycler==0.10.0
cymem==2.0.5
Cython==0.29.23
daft==0.0.4
dask==2.12.0
imgaug==0.2.9
GDAL==2.2.2
pygobject==3.26.1
en-core-web-sm==2.2.5
rpy2==3.4.4
screen-resolution-extra==0.0.0
xkit==0.0.0
torch==1.8.1+cu101
torchvision==0.9.1+cu101
jaxlib==0.1.66+cuda110
